…
    ## Rows: 336 Columns: 5
    ## ── Column specification ────────────────────────────────────────────────────────
    ## Delimiter: ","
    ## chr (1): species
    ## dbl (4): plot, tree, dbh.cm, height.m
    ## 
    ## ℹ Use `spec()` to retrieve the full column specification for this data.
    ## ℹ Specify the column types or set `show_col_types = FALSE` to quiet this message.

``` r
ufc_tibble
```

    ## # A tibble: 336 × 5
    ##     plot  tree species dbh.cm height.m
    ##    <dbl> <dbl> <chr>    <dbl>    <dbl>
    ##  1     2     1 DF        39       20.5
    ##  2     2     2 WL        48       33  
    ##  3     3     2 GF        52       30  
    ##  4     3     5 WC        36       20.7
    ##  5     3     8 WC        38       22.5
    ##  6     4     1 WC        46       18  
    ##  7     4     2 DF        25       17  
    ##  8     5     2 DF        54.9     29.3
    ##  9     5     4 GF        51.8     29  
    ## 10     6     1 DF        40.9     26  
    ## # ℹ 326 more rows
…
